{
      "Documenti": [{
                  "Title": ["Discovering and Visualizing Interdisciplinary Content Classes in Scientific Publications",
                        "Efficient Blocking Method for a Large Scale Citation Matching",
                        "The Social, Political and Legal Aspects of Text and Data Mining (TDM)",
                        "A Comparison of Two Unsupervised Table Recognition Methods from Digital Scientific Articles",
                        "A Keyquery-Based Classification System for CORE",
                        "AMI-diagram_ Mining Facts from Images",
                        "Experiments on Rating Conferences with CORE and DBLP",
                        "Annota_ Towards Enriching Scientific Publications with Semantics and User Annotations",
                        "Extracting Textual Descriptions of Mathematical Expressions in Scientific Papers",
                        "GROTOAP2 — The Methodology of Creating a Large Ground Truth Dataset of Scientific Articles",
                        "The Architecture and Datasets of Docear's Research Paper Recommender System",
                        "The ContentMine Scraping Stack_ Literature-scale Content Mining with Community-maintained Collections of Declarative Scrapers",
                        "Towards a Marketplace for the Scientific Community_ Accessing Knowledge from the Computer Science Domain",
                        "Towards Semantometrics_ A New Semantic Similarity Based Measure for Assessing a Research Publication's Contribution"
                  ]
            },

            {
                  "Title": ["Confluent gamma density in modelling tsunami interevent times _ Thomas _ Statistica",
                        "Estimation of finite population variance using auxiliary information in sample surveys _ Singh _ Statistica",
                        "Multivariate normal-Laplace distribution and processes _ Jose _ Statistica",
                        "On a Test of Hypothesis to Verify the Operating Risk Due to Accountancy Errors _ Chiodini _ Statistica",
                        "On concurvity in nonlinear and nonparametric regression models _ Amodio _ Statistica",
                        "Testing normality of latent variables in the polychoric correlation _ Almeida _ Statistica"]
            },

            {
                  "Title": ["Collaborative Construction of Digital Cultural Heritage_ A Synthesis of Research on Online Sociability Determinants",
                        "Developing Best Practices in Digital Library Assessment_ Year One Update",
                        "Efficient Table Annotation for Digital Articles",
                        "MapAffil_ A Bibliographic Tool for Mapping Author Affiliation Strings to Cities and Their Geocodes Worldwide",
                        "NLP4NLP_ The Cobbler's Children Won't Go Unshod",
                        "PubIndia_ A Framework for Analyzing Indian Research Publications in Computer Science",
                        "Semantometrics in Coauthorship Networks_ Fulltext-based Approach for Analysing Patterns of Research Collaboration",
                        "Structured Affiliations Extraction from Scientific Literature",
                        "The OpenAIRE Literature Broker Service for Institutional Repositories",
                        "Using Scenarios in Introductory Research Data Management Workshops for Library Staff"]
            },

            {
                  "Title": ["Hercules, Ceres and Proserpine in the decorative cycle at Palazzo Sampieri-Talon in Bologna _ Castelli _ Figure",
                        "Mountaineering and photography. Contacts between 1880 and 1940 _ Andorno _ Figure",
                        "Pictures to a story. Notes on Vita di San Filippo Neri at the Civic Museum of Bassano del Grappa _ Vettori _ Figure",
                        "Santa Maria degli Angeli in Florence. The evolution of the camaldolese monastery through the genesis of its cloisters _ Cricchio _ Figure",
                        "Social Risks and Demands for Security _ Lanzillo _ Governare la paura. Journal of interdisciplinary studies",
                        "The Last Harvest of Anthony Basoli_ trip and landing of a visionary artist _ D'Andola _ Figure",
                        "The Master of Celano Pelumi_ retrieving an identity through new studies on commissions _ Borghi _ Figure",
                        "Vito Acconci and the disappearance of the ego _ Fameli _ Figure",
                        "Workfare_ Work’s obligation and individualization of risk _ Colombo _ Governare la paura. Journal of interdisciplinary studies"]
            }

      ]
}